<?xml version="1.0" encoding="iso-8859-1"?>
<!-- Generator: Adobe Illustrator 19.0.0, SVG Export Plug-In . SVG Version: 6.00 Build 0)  -->
<svg version="1.1" id="Capa_1" xmlns="http://www.w3.org/2000/svg" xmlns:xlink="http://www.w3.org/1999/xlink" x="0px" y="0px"
	 viewBox="0 0 496 496" style="enable-background:new 0 0 496 496;" xml:space="preserve">
<linearGradient id="SVGID_1_" gradientUnits="userSpaceOnUse" x1="-56.895" y1="568.2078" x2="8.836" y2="633.9388" gradientTransform="matrix(8 0 0 -8 398.9999 4991.4248)">
	<stop  offset="0" style="stop-color:#AA6100"/>
	<stop  offset="0.093" style="stop-color:#AC6400"/>
	<stop  offset="0.165" style="stop-color:#B26E00"/>
	<stop  offset="0.231" style="stop-color:#BB7E00"/>
	<stop  offset="0.292" style="stop-color:#C99600"/>
	<stop  offset="0.35" style="stop-color:#DBB400"/>
	<stop  offset="0.405" style="stop-color:#F0D800"/>
	<stop  offset="0.439" style="stop-color:#FFF200"/>
	<stop  offset="0.474" style="stop-color:#FFD705"/>
	<stop  offset="0.519" style="stop-color:#FFBB0A"/>
	<stop  offset="0.565" style="stop-color:#FFA80E"/>
	<stop  offset="0.611" style="stop-color:#FF9C10"/>
	<stop  offset="0.658" style="stop-color:#FF9811"/>
	<stop  offset="0.732" style="stop-color:#FF9A12"/>
	<stop  offset="0.758" style="stop-color:#FFA118"/>
	<stop  offset="0.777" style="stop-color:#FFAC21"/>
	<stop  offset="0.793" style="stop-color:#FFBD2E"/>
	<stop  offset="0.806" style="stop-color:#FFD33F"/>
	<stop  offset="0.809" style="stop-color:#FFDA44"/>
	<stop  offset="0.879" style="stop-color:#DDA928"/>
	<stop  offset="0.96" style="stop-color:#B8750B"/>
	<stop  offset="1" style="stop-color:#AA6100"/>
</linearGradient>
<path style="fill:url(#SVGID_1_);" d="M83.064,244.995c44.112-18.416,93.76-18.416,137.872,0c4.082,1.692,8.764-0.246,10.456-4.328
	c1.692-4.082-0.246-8.764-4.328-10.456c-48.035-20.048-102.093-20.048-150.128,0c-4.082,1.692-6.02,6.374-4.328,10.456
	C74.3,244.749,78.982,246.687,83.064,244.995z"/>
<linearGradient id="SVGID_2_" gradientUnits="userSpaceOnUse" x1="-58.895" y1="570.2078" x2="6.836" y2="635.9388" gradientTransform="matrix(8 0 0 -8 398.9999 4991.4248)">
	<stop  offset="0" style="stop-color:#AA6100"/>
	<stop  offset="0.093" style="stop-color:#AC6400"/>
	<stop  offset="0.165" style="stop-color:#B26E00"/>
	<stop  offset="0.231" style="stop-color:#BB7E00"/>
	<stop  offset="0.292" style="stop-color:#C99600"/>
	<stop  offset="0.35" style="stop-color:#DBB400"/>
	<stop  offset="0.405" style="stop-color:#F0D800"/>
	<stop  offset="0.439" style="stop-color:#FFF200"/>
	<stop  offset="0.474" style="stop-color:#FFD705"/>
	<stop  offset="0.519" style="stop-color:#FFBB0A"/>
	<stop  offset="0.565" style="stop-color:#FFA80E"/>
	<stop  offset="0.611" style="stop-color:#FF9C10"/>
	<stop  offset="0.658" style="stop-color:#FF9811"/>
	<stop  offset="0.732" style="stop-color:#FF9A12"/>
	<stop  offset="0.758" style="stop-color:#FFA118"/>
	<stop  offset="0.777" style="stop-color:#FFAC21"/>
	<stop  offset="0.793" style="stop-color:#FFBD2E"/>
	<stop  offset="0.806" style="stop-color:#FFD33F"/>
	<stop  offset="0.809" style="stop-color:#FFDA44"/>
	<stop  offset="0.879" style="stop-color:#DDA928"/>
	<stop  offset="0.96" style="stop-color:#B8750B"/>
	<stop  offset="1" style="stop-color:#AA6100"/>
</linearGradient>
<path style="fill:url(#SVGID_2_);" d="M83.064,212.995c44.112-18.416,93.76-18.416,137.872,0c4.082,1.692,8.764-0.246,10.456-4.328
	c1.692-4.082-0.246-8.764-4.328-10.456l0,0c-48.035-20.048-102.093-20.048-150.128,0c-4.082,1.692-6.02,6.374-4.328,10.456
	C74.3,212.749,78.982,214.687,83.064,212.995z"/>
<linearGradient id="SVGID_3_" gradientUnits="userSpaceOnUse" x1="-54.895" y1="566.2078" x2="10.836" y2="631.9388" gradientTransform="matrix(8 0 0 -8 398.9999 4991.4248)">
	<stop  offset="0" style="stop-color:#AA6100"/>
	<stop  offset="0.093" style="stop-color:#AC6400"/>
	<stop  offset="0.165" style="stop-color:#B26E00"/>
	<stop  offset="0.231" style="stop-color:#BB7E00"/>
	<stop  offset="0.292" style="stop-color:#C99600"/>
	<stop  offset="0.35" style="stop-color:#DBB400"/>
	<stop  offset="0.405" style="stop-color:#F0D800"/>
	<stop  offset="0.439" style="stop-color:#FFF200"/>
	<stop  offset="0.474" style="stop-color:#FFD705"/>
	<stop  offset="0.519" style="stop-color:#FFBB0A"/>
	<stop  offset="0.565" style="stop-color:#FFA80E"/>
	<stop  offset="0.611" style="stop-color:#FF9C10"/>
	<stop  offset="0.658" style="stop-color:#FF9811"/>
	<stop  offset="0.732" style="stop-color:#FF9A12"/>
	<stop  offset="0.758" style="stop-color:#FFA118"/>
	<stop  offset="0.777" style="stop-color:#FFAC21"/>
	<stop  offset="0.793" style="stop-color:#FFBD2E"/>
	<stop  offset="0.806" style="stop-color:#FFD33F"/>
	<stop  offset="0.809" style="stop-color:#FFDA44"/>
	<stop  offset="0.879" style="stop-color:#DDA928"/>
	<stop  offset="0.96" style="stop-color:#B8750B"/>
	<stop  offset="1" style="stop-color:#AA6100"/>
</linearGradient>
<path style="fill:url(#SVGID_3_);" d="M220.936,276.995c4.082,1.692,8.764-0.246,10.456-4.328c1.692-4.082-0.246-8.764-4.328-10.456
	c-48.035-20.048-102.093-20.048-150.128,0c-4.082,1.692-6.02,6.374-4.328,10.456c1.692,4.082,6.374,6.02,10.456,4.328l0,0
	C127.176,258.579,176.824,258.579,220.936,276.995z"/>
<linearGradient id="SVGID_4_" gradientUnits="userSpaceOnUse" x1="-49.1395" y1="560.4593" x2="16.5855" y2="626.1863" gradientTransform="matrix(8 0 0 -8 398.9999 4991.4248)">
	<stop  offset="0" style="stop-color:#AA6100"/>
	<stop  offset="0.093" style="stop-color:#AC6400"/>
	<stop  offset="0.165" style="stop-color:#B26E00"/>
	<stop  offset="0.231" style="stop-color:#BB7E00"/>
	<stop  offset="0.292" style="stop-color:#C99600"/>
	<stop  offset="0.35" style="stop-color:#DBB400"/>
	<stop  offset="0.405" style="stop-color:#F0D800"/>
	<stop  offset="0.439" style="stop-color:#FFF200"/>
	<stop  offset="0.474" style="stop-color:#FFD705"/>
	<stop  offset="0.519" style="stop-color:#FFBB0A"/>
	<stop  offset="0.565" style="stop-color:#FFA80E"/>
	<stop  offset="0.611" style="stop-color:#FF9C10"/>
	<stop  offset="0.658" style="stop-color:#FF9811"/>
	<stop  offset="0.732" style="stop-color:#FF9A12"/>
	<stop  offset="0.758" style="stop-color:#FFA118"/>
	<stop  offset="0.777" style="stop-color:#FFAC21"/>
	<stop  offset="0.793" style="stop-color:#FFBD2E"/>
	<stop  offset="0.806" style="stop-color:#FFD33F"/>
	<stop  offset="0.809" style="stop-color:#FFDA44"/>
	<stop  offset="0.879" style="stop-color:#DDA928"/>
	<stop  offset="0.96" style="stop-color:#B8750B"/>
	<stop  offset="1" style="stop-color:#AA6100"/>
</linearGradient>
<path style="fill:url(#SVGID_4_);" d="M488,101.603h-40v-8c0.001-3.235-1.947-6.153-4.936-7.392
	C380.644,60.596,310.724,60.174,248,85.035c-62.653-25.251-132.728-24.829-195.072,1.176c-2.986,1.242-4.93,4.159-4.928,7.392v8.048
	H8c-4.418,0-8,3.582-8,8v311.952c0,4.418,3.582,8,8,8h480c4.418,0,8-3.582,8-8v-312C496,105.184,492.418,101.603,488,101.603z
	 M432,374.483c-18.111-6.511-36.895-10.968-56-13.288v-94.96c12.666,2.208,25.049,5.815,36.92,10.752
	c0.975,0.41,2.022,0.62,3.08,0.616c4.418,0.001,8.001-3.58,8.002-7.998c0.001-3.23-1.941-6.143-4.922-7.386
	c-13.831-5.738-28.291-9.823-43.08-12.168v-15.816c12.666,2.208,25.049,5.815,36.92,10.752c0.975,0.41,2.022,0.62,3.08,0.616
	c4.418,0.001,8.001-3.58,8.002-7.998c0.001-3.23-1.941-6.143-4.922-7.386c-13.831-5.738-28.291-9.823-43.08-12.168v-15.816
	c12.666,2.208,25.049,5.815,36.92,10.752c0.975,0.41,2.022,0.62,3.08,0.616c4.418,0.001,8.001-3.58,8.002-7.998
	c0.001-3.23-1.941-6.143-4.922-7.386c-13.831-5.738-28.291-9.823-43.08-12.168V84.803c19.169,2.492,37.969,7.273,56,14.24
	L432,374.483z M312,186.051c-14.789,2.345-29.249,6.43-43.08,12.168c-4.078,1.7-6.006,6.384-4.306,10.462
	c1.243,2.981,4.156,4.922,7.386,4.922c1.058,0.004,2.105-0.206,3.08-0.616c11.871-4.937,24.254-8.544,36.92-10.752v15.816
	c-14.789,2.345-29.249,6.43-43.08,12.168c-4.078,1.7-6.006,6.384-4.306,10.462c1.243,2.981,4.156,4.922,7.386,4.922
	c1.058,0.004,2.105-0.206,3.08-0.616c11.871-4.937,24.254-8.544,36.92-10.752v15.816c-14.789,2.345-29.249,6.43-43.08,12.168
	c-4.078,1.7-6.006,6.384-4.306,10.462c1.243,2.981,4.156,4.922,7.386,4.922c1.058,0.004,2.105-0.206,3.08-0.616
	c11.871-4.938,24.254-8.544,36.92-10.752v94.96c-19.105,2.32-37.889,6.777-56,13.288V99.011c18.031-6.967,36.831-11.748,56-14.24
	L312,186.051z M328,85.603h32v292.688l-10.344-10.344c-3.124-3.123-8.188-3.123-11.312,0L328,378.291V85.603z M64,99.011
	c56.57-22.184,119.43-22.184,176,0v275.472c-56.836-20.725-119.164-20.725-176,0V99.011z M480,413.603H16V117.651h32v268.52
	c-0.001,4.418,3.58,8.001,7.998,8.002c1.052,0,2.094-0.207,3.066-0.61c59.472-24.816,126.4-24.816,185.872,0
	c0.064,0,0.128,0,0.192,0.04c0.817,0.307,1.679,0.477,2.552,0.504c0.112,0,0.216,0.064,0.32,0.064c0.104,0,0.376-0.064,0.56-0.08
	c0.39-0.032,0.777-0.088,1.16-0.168c0.328-0.069,0.652-0.16,0.968-0.272c0.12-0.04,0.248-0.048,0.368-0.096
	c19.521-8.033,40.01-13.474,60.944-16.184v20.232c0.001,4.418,3.583,7.999,8.002,7.998c2.121,0,4.154-0.843,5.654-2.342L344,384.915
	l18.344,18.344c3.125,3.124,8.19,3.123,11.314-0.002c1.499-1.5,2.342-3.534,2.342-5.654v-20.232
	c20.934,2.71,41.423,8.151,60.944,16.184c4.083,1.688,8.762-0.254,10.449-4.337c0.4-0.969,0.607-2.007,0.607-3.055v-268.56h32
	V413.603z"/>
<g>
</g>
<g>
</g>
<g>
</g>
<g>
</g>
<g>
</g>
<g>
</g>
<g>
</g>
<g>
</g>
<g>
</g>
<g>
</g>
<g>
</g>
<g>
</g>
<g>
</g>
<g>
</g>
<g>
</g>
</svg>
